^C:\USERS\MICHAEL HOTAN\DROPBOX\AUTUMN 2012\CSE455\PROJECTS\2\PANORAMA\DEBUG\BLENDIMAGES.OBJ|C:\USERS\MICHAEL HOTAN\DROPBOX\AUTUMN 2012\CSE455\PROJECTS\2\PANORAMA\DEBUG\FEATUREALIGN.OBJ|C:\USERS\MICHAEL HOTAN\DROPBOX\AUTUMN 2012\CSE455\PROJECTS\2\PANORAMA\DEBUG\FEATURESET.OBJ|C:\USERS\MICHAEL HOTAN\DROPBOX\AUTUMN 2012\CSE455\PROJECTS\2\PANORAMA\DEBUG\PANORAMA.EXE.EMBED.MANIFEST.RES|C:\USERS\MICHAEL HOTAN\DROPBOX\AUTUMN 2012\CSE455\PROJECTS\2\PANORAMA\DEBUG\PANORAMA.OBJ|C:\USERS\MICHAEL HOTAN\DROPBOX\AUTUMN 2012\CSE455\PROJECTS\2\PANORAMA\DEBUG\WARPSPHERICAL.OBJ|C:\USERS\MICHAEL HOTAN\DROPBOX\AUTUMN 2012\CSE455\PROJECTS\2\PANORAMA\IMAGELIB\RELEASE\IMAGELIB.LIB
C:\USERS\MICHAEL HOTAN\DROPBOX\AUTUMN 2012\CSE455\PROJECTS\2\PANORAMA\DEBUG\PANORAMA.ILK
C:\USERS\MICHAEL HOTAN\DROPBOX\AUTUMN 2012\CSE455\PROJECTS\2\PANORAMA\DEBUG\PANORAMA.EXE
C:\USERS\MICHAEL HOTAN\DROPBOX\AUTUMN 2012\CSE455\PROJECTS\2\PANORAMA\DEBUG\PANORAMA.EXE.INTERMEDIATE.MANIFEST
C:\USERS\MICHAEL HOTAN\DROPBOX\AUTUMN 2012\CSE455\PROJECTS\2\PANORAMA\DEBUG\V4GP1.PDB
